# Copyright 1999-2011 Gentoo Foundation.
# Distributed under the terms of the GNU General Public License, v2
# $Header: /var/cvsroot/gentoo-x86/profiles/arch/x86/use.mask,v 1.24 2011/05/09 21:20:22 chithanh Exp $

# Unmask the flag which corresponds to ARCH.
-x86

# This file masks out USE flags that are simply NOT allowed in the default
# x86 profile.  This works, for example, if another architecture's
# profile have a USE flag associated with (such as altivec, mmx, etc).

# 2010/07/27 - Matti Bickel <mabi@gentoo.org>
# app-text/fdf is only supported on x86
-fdftk

# 2010/02/14 - Samuli Suominen <ssuominen@gentoo.org>
# Unmask amd64/x86 only SANE_BACKENDS
-sane_backends_canon_pp
-sane_backends_hpsj5s
-sane_backends_mustek_pp
-sane_backends_qcam

# 2010/05/03 - Alex Legler <a3li@gentoo.org>
# Add support for Ruby Enterprise Edition targets where rubyee is available
-ruby_targets_ree18

# 2010/01/08 - Diego E. Pettenò <flameeyes@gentoo.org>
# Add support for JRuby targets where jruby is available
-ruby_targets_jruby

# pbbuttonsd and macbook for KDE and pbuttonsd it
#-pbbuttonsd
-macbook

# Unmask x86 instruction sets
-3dnow
-3dnowext
-lilo
-mmx
-mmxext
-sse
-sse2
-sse3
-sse4
-sse4a
-sse5
-ssse3
-svga
-kqemu
-nvram

# Unmask nvidia XvMC support
-nvidia

# Unmask dev-db/oracle-instantclient-basic support
-oci8-instant-client

# Unmask osp, used by asterisk; bug 115798
-osp

# Unmask yellownet, used by aqbanking (bug 149970)
-yellownet

# Modular X: unmask for architectures on which they are available
-input_devices_synaptics
-input_devices_virtualbox
-input_devices_vmmouse
-input_devices_wacom
-video_cards_nvidia
-video_cards_fglrx
-video_cards_vmware
-video_cards_geode
-video_cards_via
-video_cards_virtualbox
-video_cards_xgi
-video_cards_qxl

# Modular X: mask for architectures on which they aren't available
video_cards_newport

#codec support
-win32codecs
-x264

# lvm2 cluster
-clvm
-gulm

# psyco works on x86
-psyco

# Diego Pettenò <flameeyes@gentoo.org> (4 Jan 2007)
# Unmask the flags for PHP that are available only on x86
-fdftk
-sybase-ct
-ingres
-birdstep
-adabas
-filepro
-pfpro
-informix
-empress
-empress-bcs
-sybase
-frontbase
-dbmaker
-esoob
-solid
# Shared with amd64
-oci8
-oracle7
-firebird
-db2

# Robert Buchholz <rbu@gentoo.org> (03 Jun 2007)
# Unmask as it works on x86
-lcd_devices_svga
-lcd_devices_luise

# George Shapovalov <george@gentoo.org> (8 Apr 2007)
# supported on x86
-ada

# tcc is x86 only
-tcc

# RealMagic Hollywood+/Creative DXR3 support
-dxr3

# 64bit Windows doesn't work on 32bit systems
win64
